
   Content of the .dal input file
 ----------------------------------

**DALTON INPUT
.DIRECT
.RUN WAVE FUNCTION
**WAVE FUNCTIONS
.CC
*CC INPUT
.CCSD
*CCEXCI
.NCCEXC
3 2
.CVSEPARATION
2 0
2 3
0
*CCOPA
.DIPOLE
*ORBITAL INPUT
.PUNCHOUTORBITALS
**INTEGRALS
.DIPLEN
**END OF DALTON INPUT


   Content of the .mol file
 ----------------------------

BASIS
cc-pVDZ


AtomTypes=2 Charge=0 Angstrom
Charge=8.0 Atoms=1
O   -0.065000    0.011000    0.000000
Charge=1.0 Atoms=2
H    0.574000    0.282000   -0.659000
H    0.451000   -0.462000    0.653000


          !      FINAL CCSD RESULTS FOR ONE-PHOTON ABSORPTION STRENGTHS !

     frequency :   0.5486224286 a.u.    14.92878 e.V.    120408.7 cm^-1

       oscillator strength (length gauge)   :      0.29331132


     frequency :   0.6775769744 a.u.    18.43781 e.V.    148711.0 cm^-1

       oscillator strength (length gauge)   :      0.10844814


     frequency :   1.0948456736 a.u.    29.79227 e.V.    240290.8 cm^-1

       oscillator strength (length gauge)   :      0.13033753

     frequency :   1.1113486290 a.u.    30.24133 e.V.    243912.8 cm^-1

       oscillator strength (length gauge)   :      0.00000000

     frequency :   1.1898998616 a.u.    32.37882 e.V.    261152.8 cm^-1

       oscillator strength (length gauge)   :      0.00000788


 *                   SUMMARY OF COUPLED CLUSTER CALCULATION                    *

