33

U	0	0	0
C	1.812078	0.158536	1.775
C	1.169231	1.393435	1.775
C	-0.158536	1.812078	1.775
C	-1.393435	1.169231	1.775
C	-1.812078	-0.158536	1.775
C	-1.169231	-1.393435	1.775
C	0.158536	-1.812078	1.775
C	1.393435	-1.169231	1.775
H	2.908291	0.254442	1.775
H	1.876554	2.23639	1.775
H	-0.254442	2.908291	1.775
H	-2.23639	1.876554	1.775
H	-2.908291	-0.254442	1.775
H	-1.876554	-2.23639	1.775
H	0.254442	-2.908291	1.775
H	2.23639	-1.876554	1.775
C	1.812078	-0.158536	-1.775
C	1.169231	-1.393435	-1.775
C	-0.158536	-1.812078	-1.775
C	-1.393435	-1.169231	-1.775
C	-1.812078	0.158536	-1.775
C	-1.169231	1.393435	-1.775
C	0.158536	1.812078	-1.775
C	1.393435	1.169231	-1.775
H	2.908291	-0.254442	-1.775
H	1.876554	-2.23639	-1.775
H	-0.254442	-2.908291	-1.775
H	-2.23639	-1.876554	-1.775
H	-2.908291	0.254442	-1.775
H	-1.876554	2.23639	-1.775
H	0.254442	2.908291	-1.775
H	2.23639	1.876554	-1.775
